<?xml version="1.0" encoding="utf-8"?>
<!-- Generator: Adobe Illustrator 19.0.0, SVG Export Plug-In . SVG Version: 6.00 Build 0)  -->
<svg version="1.1" id="Layer_1" xmlns="http://www.w3.org/2000/svg" xmlns:xlink="http://www.w3.org/1999/xlink" x="0px" y="0px"
	 viewBox="0 0 20 20" style="enable-background:new 0 0 20 20;" xml:space="preserve">
<style type="text/css">
	.st0{fill:#52BB6E;}
	.st1{fill:#98CC6D;}
	.st2{fill:#5DBD75;}
	.st3{fill:#74C048;}
	.st4{fill:#3F8057;}
	.st5{fill:#28402F;}
	.st6{fill:#010101;}
</style>
<g id="XMLID_1578_">
	<g id="XMLID_1603_">
		<path id="XMLID_1606_" class="st0" d="M4.2,0C4.2,0,4.3,0,4.2,0c0.4,0.1,2.4,0.8,3,1.3L6.8,0.7c0,0,3.1,1.3,3.7,2.5l-0.2-0.6
			c0,0,0.2,0.2,0.5,0.5c-0.2,0.9-0.6,2.3-1.4,3.3C8.1,4,6.4,1.7,4.2,0z"/>
		<path id="XMLID_1605_" class="st1" d="M9.4,6.3c0.8-1,1.2-2.4,1.4-3.3c0.3,0.3,0.8,0.8,1.2,1.3c-0.4,1.3-1.3,2.8-1.7,3.5
			C10,7.3,9.7,6.8,9.4,6.3z"/>
		<path id="XMLID_1604_" class="st0" d="M15.1,12.8C15.1,12.9,15,12.9,15.1,12.8C15,12.9,15,12.9,15.1,12.8z"/>
	</g>
	<g id="XMLID_1600_">
		<path id="XMLID_1602_" class="st0" d="M10.3,7.9c0.4-0.7,1.3-2.3,1.7-3.5c0.2,0.2,0.4,0.5,0.5,0.8c0,0-0.4,2-1.8,3.6
			c0,0,0.1,0,0.2-0.1c-0.1,0.1-0.1,0.2-0.2,0.2C10.6,8.5,10.4,8.2,10.3,7.9z"/>
		<path id="XMLID_1601_" class="st0" d="M15.1,12.8C15,12.9,15,12.9,15.1,12.8C15,12.9,15.1,12.9,15.1,12.8z"/>
	</g>
	<g id="XMLID_1597_">
		<path id="XMLID_1599_" class="st0" d="M11.7,11.1C11.7,11.1,11.8,11.1,11.7,11.1C11.8,11.1,11.8,11.1,11.7,11.1
			c0.1,0,1.5-0.2,3.1-2c0,0,0.7,2.8,0.2,3.7c0,0,0,0,0,0c0,0,0,0,0,0c0.1-0.2,0.6-1.2,0.5-1.6c0,0,1,3.1-2.1,6
			C13.5,17.3,13,14.6,11.7,11.1z"/>
		<path id="XMLID_1598_" class="st2" d="M10.7,8.8c0.1-0.1,0.1-0.2,0.2-0.2c0.4-0.3,1.4-1.3,2-2.9c0,0,1.6,2.2,1.7,3.1
			c0,0-1.3,1.7-2.9,2.4c0,0,0,0-0.1,0C11.4,10.4,11.1,9.6,10.7,8.8z"/>
	</g>
	<g id="XMLID_1594_">
		<path id="XMLID_1596_" class="st3" d="M11.6,15.4c-0.4,0-1-0.1-1.6-0.3c-0.3-0.3-0.6-0.6-0.8-0.9c0.8,0.3,1.8,0.6,2.3,0.5
			c0.3-0.1,1,0.1,1.5,0.2c0.1,0.2,0.1,0.5,0.2,0.7C12.6,15.6,12,15.4,11.6,15.4z"/>
		<path id="XMLID_1595_" class="st4" d="M10,15.2c0.6,0.2,1.2,0.3,1.6,0.3c0.4,0,1,0.1,1.5,0.3c0.2,1,0.3,1.7,0.3,1.7s-1-0.5-2-0.6
			c-1-0.1-1.8-1.5-1.8-1.5c0.3,0.4,1.2,0.5,1.4,0.6c0,0,0,0,0,0c0,0,0,0,0,0C10.7,15.8,10.3,15.5,10,15.2z"/>
	</g>
	<g id="XMLID_1591_">
		<path id="XMLID_1593_" class="st5" d="M10,12.1c0.5,0.2,1.4,0.4,2.2,0.5c0.1,0.4,0.3,0.9,0.4,1.3c-0.7-0.2-1.6-0.4-2.5-0.7
			c-0.8-0.3-1.7-0.7-2.4-1.1c-0.1-0.3-0.2-0.7-0.3-1C8.3,11.3,9.4,11.8,10,12.1z"/>
		<path id="XMLID_1592_" class="st4" d="M12.6,13.8c0.1,0.4,0.2,0.8,0.3,1.2c-0.6-0.1-1.2-0.3-1.5-0.2c-0.4,0.1-1.5-0.3-2.3-0.5
			c-0.2-0.2-0.3-0.4-0.3-0.4c0.6,0.4,1.5,0.4,1.9,0.3c0.1,0,0.2,0,0.3,0c0,0-0.1,0-0.3,0c-1,0-2.6-1.2-2.6-1.2
			c-0.2-0.3-0.3-0.6-0.5-1c0.7,0.4,1.6,0.8,2.4,1.1C11,13.4,11.9,13.6,12.6,13.8z"/>
	</g>
	<path id="XMLID_1590_" class="st4" d="M8.9,10.7c0.6,0.2,1.8,0.7,2.9,0.8c0.1,0.4,0.2,0.7,0.4,1.1c-0.7-0.1-1.6-0.2-2.2-0.5
		c-0.6-0.3-1.7-0.8-2.7-1.1C7.2,10.6,7.1,10.3,7,9.9C7.6,10.2,8.4,10.6,8.9,10.7z"/>
	<path id="XMLID_1589_" class="st3" d="M11.4,10.3c0.2,0.4,0.3,0.8,0.4,1.2c-1.1-0.1-2.3-0.5-2.9-0.8C8.4,10.6,7.6,10.2,7,9.9
		C6.8,9.5,6.6,9.2,6.4,8.8C7,9,7.7,9.4,8.9,9.9C10,10.3,10.9,10.3,11.4,10.3z"/>
	<path id="XMLID_1588_" class="st4" d="M5.5,7.4C6.1,7.7,6.7,8,7.4,8.1c1.3,0.3,2.2,1.1,3.4,0.8c0.2,0.5,0.4,0.9,0.6,1.4
		c-0.6,0-1.4-0.1-2.5-0.4C7.7,9.4,7,9,6.4,8.8C6.3,8.6,6.2,8.5,6.1,8.3C5.9,8.1,5.7,7.8,5.5,7.4z"/>
	<path id="XMLID_1587_" class="st0" d="M7.7,6.7C8.4,7,9.4,7,9.9,6.9c0.4,0.7,0.7,1.3,1,2C9.6,9.2,8.7,8.4,7.4,8.1
		C6.7,8,6.1,7.7,5.5,7.4C5.4,7,5.2,6.6,5.1,6.1C5.9,6.2,7.1,6.4,7.7,6.7z"/>
	<g id="XMLID_1584_">
		<path id="XMLID_1586_" class="st4" d="M4.6,3.4l0.2,0.3C4.8,3.6,4.7,3.5,4.6,3.4z"/>
		<path id="XMLID_1585_" class="st5" d="M4.6,3.4L4.6,3.4c0.1,0.1,0.2,0.2,0.2,0.3L5,3.9c0,0,0,0,0-0.1C5.1,4,5.3,4.1,5.6,4.2
			c0.8,0.1,1.8,0.6,2.9,0.5C9,5.4,9.5,6.2,9.9,6.9C9.4,7,8.4,7,7.7,6.7C7.1,6.4,5.9,6.2,5.1,6.1C4.7,4.7,4.6,3.4,4.6,3.4z"/>
	</g>
	<g id="XMLID_1580_">
		<path id="XMLID_1583_" class="st4" d="M7.9,3.8c0.2,0.3,0.5,0.6,0.7,0.9C7.4,4.8,6.4,4.3,5.6,4.2C5.3,4.1,5.1,4,4.9,3.8
			C4.8,3.5,4.7,3.2,4.6,2.9C6.5,3.8,7.4,3.9,7.9,3.8z"/>
		<path id="XMLID_1582_" class="st4" d="M4.4,1.8C4.2,0.8,4.2,0,4.2,0c1,0.8,1.9,1.6,2.7,2.6C6,2.5,5.1,2.1,4.4,1.8z"/>
		<path id="XMLID_1581_" class="st3" d="M4.6,2.9C4.5,2.5,4.5,2.1,4.4,1.8C5.1,2.1,6,2.5,6.9,2.6c0.3,0.4,0.7,0.8,1,1.2
			C7.4,3.9,6.5,3.8,4.6,2.9z"/>
	</g>
	<path id="XMLID_1579_" class="st6" d="M4.2,0c0,0,0.1,0.1,0.2,0.2c0.1,0.1,0.1,0.1,0.2,0.2C4.8,0.4,4.9,0.5,5,0.6
		c0.2,0.2,0.5,0.5,0.8,0.8C6,1.6,6.1,1.8,6.3,1.9c0.2,0.2,0.3,0.4,0.5,0.6C6.9,2.6,7,2.7,7.1,2.8C7.2,3,7.2,3.1,7.3,3.2
		c0.2,0.2,0.4,0.5,0.5,0.7C7.9,4,8,4,8,4.1c0,0.1,0.1,0.1,0.1,0.2c0.1,0.1,0.2,0.3,0.3,0.4C8.6,5,8.8,5.2,8.9,5.5
		c0.2,0.3,0.3,0.6,0.5,0.9C9.6,6.7,9.8,7,9.9,7.3c0.3,0.6,0.6,1.3,0.9,1.9c0.3,0.6,0.5,1.3,0.8,2c0.2,0.7,0.4,1.3,0.6,1.9
		c0.2,0.6,0.3,1.2,0.5,1.8c0,0.1,0.1,0.3,0.1,0.4c0,0,0,0.1,0,0.1c0,0,0,0.1,0,0.1c0,0.1,0,0.1,0,0.2c0.1,0.3,0.1,0.5,0.2,0.8
		c0,0,0,0.1,0,0.1c0,0,0,0.1,0,0.1c0,0.1,0,0.1,0,0.2c0,0.1,0,0.2,0.1,0.4c0,0.2,0.1,0.5,0.1,0.7c0,0.2,0.1,0.4,0.1,0.6
		c0,0.1,0,0.2,0,0.3c0,0.1,0,0.2,0,0.2c0,0.1,0,0.1,0,0.2c0,0.1,0,0.1,0,0.2c0,0.1,0,0.2,0,0.3c0,0.2,0,0.2,0,0.2l0.4,0
		c0,0,0-0.1,0-0.2c0-0.1,0-0.2,0-0.3c0-0.1,0-0.1,0-0.2c0-0.1,0-0.1,0-0.2c0-0.1,0-0.2,0-0.2c0-0.1,0-0.2,0-0.3
		c0-0.2-0.1-0.4-0.1-0.6c0-0.2-0.1-0.4-0.1-0.7c0-0.1-0.1-0.2-0.1-0.4c0-0.1,0-0.1,0-0.2c0,0,0-0.1,0-0.1c0,0,0-0.1,0-0.1
		c-0.1-0.3-0.1-0.5-0.2-0.8c0-0.1,0-0.1-0.1-0.2c0,0,0-0.1,0-0.1c0,0,0-0.1,0-0.1c0-0.1-0.1-0.3-0.1-0.4c-0.2-0.6-0.3-1.2-0.5-1.8
		c-0.2-0.6-0.4-1.3-0.7-1.9c-0.2-0.7-0.5-1.3-0.8-2c-0.3-0.6-0.6-1.3-0.9-1.9C9.9,6.9,9.7,6.6,9.6,6.3C9.4,6,9.2,5.7,9,5.5
		C8.9,5.2,8.7,4.9,8.5,4.6C8.4,4.5,8.3,4.4,8.2,4.2c0-0.1-0.1-0.1-0.1-0.2C8,4,8,3.9,7.9,3.9C7.8,3.6,7.6,3.4,7.4,3.1
		C7.3,3,7.2,2.9,7.1,2.8C7,2.7,6.9,2.6,6.9,2.5C6.7,2.3,6.5,2.1,6.3,1.9C6.2,1.7,6,1.6,5.8,1.4C5.5,1.1,5.3,0.8,5,0.6
		C4.9,0.5,4.8,0.4,4.7,0.3C4.6,0.3,4.5,0.2,4.4,0.2C4.3,0.1,4.2,0,4.2,0z"/>
</g>
</svg>
