<?xml version="1.0" encoding="utf-8"?>
<!-- Generator: Adobe Illustrator 19.0.0, SVG Export Plug-In . SVG Version: 6.00 Build 0)  -->
<svg version="1.1" id="Capa_1" xmlns="http://www.w3.org/2000/svg" xmlns:xlink="http://www.w3.org/1999/xlink" x="0px" y="0px"
	 viewBox="-93 458.4 20 20" style="enable-background:new -93 458.4 20 20;" xml:space="preserve">
<path fill="#564C4D" d="M-74.3,462.2h-17.5c-0.7,0-1.3,0.6-1.3,1.3v10c0,0.7,0.6,1.3,1.3,1.3h17.5c0.7,0,1.3-0.6,1.3-1.3v-10
	C-73,462.7-73.6,462.2-74.3,462.2z M-91.8,463h17.5c0.2,0,0.4,0.2,0.4,0.4v4.1c-0.8,0.5-3.9,2-7.8,2.4v-0.8c0-0.4-0.3-0.7-0.7-0.7
	h-1.3c-0.4,0-0.7,0.3-0.7,0.7v0.8c-3.9-0.3-7-1.9-7.8-2.4v-4.1C-92.2,463.2-92,463-91.8,463z M-82.5,469.2v2.4h-1.1v-2.4H-82.5z
	 M-74.3,473.8h-17.5c-0.2,0-0.4-0.2-0.4-0.4v-4.9c0.4,0.2,1.1,0.5,1.9,0.9c1.4,0.5,3.5,1.2,5.9,1.4v0.9c0,0.4,0.3,0.7,0.7,0.7h1.3
	c0.4,0,0.7-0.3,0.7-0.7v-0.9c2.5-0.2,4.6-0.9,5.9-1.4c0.8-0.3,1.4-0.6,1.9-0.9v4.9C-73.8,473.7-74,473.8-74.3,473.8z"/>
</svg>
