<?xml version="1.0" encoding="utf-8"?>
<!-- Generator: Adobe Illustrator 19.0.0, SVG Export Plug-In . SVG Version: 6.00 Build 0)  -->
<svg version="1.1" id="Capa_1" xmlns="http://www.w3.org/2000/svg" xmlns:xlink="http://www.w3.org/1999/xlink" x="0px" y="0px"
	 viewBox="-93 458.4 20 20" style="enable-background:new -93 458.4 20 20;" xml:space="preserve">
<g fill="#564C4D">
	<path d="M-87.2,467.7h-0.2v-1.8c0-0.2-0.2-0.4-0.4-0.4h0v-3.6c0-0.1-0.1-0.3-0.2-0.3l-3-1.5c-0.1-0.1-0.3-0.1-0.4,0
		c-0.1,0.1-0.2,0.2-0.2,0.3v5.1h0c-0.2,0-0.4,0.2-0.4,0.4v1.8h-0.2c-0.2,0-0.4,0.2-0.4,0.4v10c0,0.2,0.2,0.4,0.4,0.4h5
		c0.2,0,0.4-0.2,0.4-0.4v-10C-86.8,467.8-87,467.7-87.2,467.7z M-90.8,461l2.2,1.1v3.4h-2.2C-90.8,465.5-90.8,461-90.8,461z
		 M-91.2,466.3h3v1.4h-3V466.3z M-87.6,477.7h-4.2v-9.2h4.2V477.7z"/>
	<path d="M-73.8,473.9h-12.4c-0.2,0-0.4,0.2-0.4,0.4c0,0.2,0.2,0.4,0.4,0.4h11.8l-0.1,0.2c-0.5,1-1.5,1.6-2.6,1.6h-9.1
		c-0.2,0-0.4,0.2-0.4,0.4c0,0.2,0.2,0.4,0.4,0.4h9.1c1.4,0,2.7-0.8,3.3-2.1l0.4-0.7c0.1-0.1,0-0.3,0-0.4
		C-73.6,474-73.7,473.9-73.8,473.9z"/>
	<path d="M-87.1,461.2c1.4-1.3,3.3-2,5.2-2c4.2,0,7.7,3.4,7.7,7.7c0,2.3-1,4.4-2.8,5.9c-0.2,0.1-0.2,0.4,0,0.5
		c0.1,0.1,0.2,0.1,0.3,0.1c0.1,0,0.2,0,0.2-0.1c1.9-1.6,3-4,3-6.5c0-4.7-3.8-8.4-8.4-8.4c-2.1,0-4.2,0.8-5.7,2.2
		c-0.2,0.1-0.2,0.4,0,0.5C-87.5,461.4-87.2,461.4-87.1,461.2z"/>
	<path d="M-81.9,460.8c3.4,0,6.1,2.7,6.1,6.1s-2.7,6.1-6.1,6.1c-1.5,0-3-0.6-4.1-1.6c-0.2-0.1-0.4-0.1-0.5,0c-0.1,0.2-0.1,0.4,0,0.5
		c1.3,1.1,2.9,1.8,4.6,1.8c3.8,0,6.8-3.1,6.8-6.8s-3.1-6.8-6.8-6.8c-2.2,0-4.2,1-5.5,2.8c-0.1,0.2-0.1,0.4,0.1,0.5
		c0.2,0.1,0.4,0.1,0.5-0.1C-85.6,461.7-83.8,460.8-81.9,460.8z"/>
	<path d="M-77.7,463.9l-7,7c-0.1,0.1-0.1,0.4,0,0.5c0.1,0.1,0.2,0.1,0.3,0.1c0.1,0,0.2,0,0.3-0.1l7-7c0.1-0.1,0.1-0.4,0-0.5
		C-77.3,463.7-77.5,463.7-77.7,463.9z"/>
	<path d="M-82.5,470.9c-0.1,0.1-0.1,0.4,0,0.5c0.1,0.1,0.2,0.1,0.3,0.1c0.1,0,0.2,0,0.3-0.1l5.2-5.2c0.1-0.1,0.1-0.4,0-0.5
		c-0.1-0.1-0.4-0.1-0.5,0L-82.5,470.9z"/>
</g>
</svg>
