<?xml version="1.0" encoding="utf-8"?>
<!-- Generator: Adobe Illustrator 19.0.0, SVG Export Plug-In . SVG Version: 6.00 Build 0)  -->
<svg version="1.1" id="Layer_1" xmlns="http://www.w3.org/2000/svg" xmlns:xlink="http://www.w3.org/1999/xlink" x="0px" y="0px"
	 viewBox="-117.2 241.1 20 20" style="enable-background:new -117.2 241.1 20 20;" xml:space="preserve">
<style type="text/css">
	.st0{fill:none;stroke:#FFFFFF;stroke-width:0.25;stroke-linecap:round;stroke-linejoin:round;stroke-miterlimit:10;}
	.st1{fill:#FFFFFF;}
</style>
<g>
	<g>
		<path class="st0" d="M-107.1,241.5c0.1,0,0.2,0,0.2,0C-106.9,241.5-107,241.5-107.1,241.5z"/>
		<path class="st0" d="M-106.8,241.5c0,0,0.1,0,0.2,0C-106.7,241.5-106.8,241.5-106.8,241.5z"/>
		<path class="st0" d="M-106.6,241.5c0,0,0.1,0,0.2,0C-106.5,241.5-106.5,241.5-106.6,241.5z"/>
		<path class="st0" d="M-106.3,241.5c0.1,0,0.1,0,0.2,0C-106.2,241.5-106.3,241.5-106.3,241.5z"/>
		<path class="st0" d="M-105.6,241.6c0,0,0.1,0,0.2,0C-105.5,241.6-105.6,241.6-105.6,241.6z"/>
		<path class="st0" d="M-105.4,241.6c0.1,0,0.1,0,0.2,0C-105.3,241.7-105.3,241.6-105.4,241.6z"/>
		<path class="st0" d="M-105.2,241.7c0.1,0,0.1,0,0.2,0C-105,241.7-105.1,241.7-105.2,241.7z"/>
		<path class="st0" d="M-109.7,241.8c0,0,0.1,0,0.2,0C-109.6,241.8-109.6,241.8-109.7,241.8z"/>
		<path class="st0" d="M-100.3,245.1C-100.3,245.2-100.3,245.2-100.3,245.1C-100.3,245.2-100.3,245.2-100.3,245.1z"/>
		<path class="st0" d="M-108.8,241.6c0,0,0.1,0,0.2,0C-108.6,241.6-108.7,241.6-108.8,241.6z"/>
		<path class="st0" d="M-108.5,241.6c0,0,0.1,0,0.2,0C-108.4,241.6-108.5,241.6-108.5,241.6z"/>
		<path class="st0" d="M-109.2,241.7c0.1,0,0.3-0.1,0.4-0.1C-109,241.7-109.1,241.7-109.2,241.7z"/>
		<path class="st0" d="M-109.4,241.8c0,0,0.1,0,0.2,0C-109.3,241.7-109.4,241.8-109.4,241.8z"/>
		<path class="st0" d="M-108.3,241.5c0.1,0,0.1,0,0.2,0C-108.2,241.5-108.2,241.5-108.3,241.5z"/>
		<path class="st0" d="M-107.3,241.5c0.1,0,0.2,0,0.2,0C-107.2,241.5-107.3,241.5-107.3,241.5z"/>
		<path class="st0" d="M-107.8,241.5c0,0,0.1,0,0.2,0C-107.7,241.5-107.7,241.5-107.8,241.5z"/>
		<path class="st0" d="M-107.6,241.5c0,0,0.1,0,0.2,0C-107.4,241.5-107.5,241.5-107.6,241.5z"/>
		<path class="st0" d="M-108.1,241.5c0.1,0,0.1,0,0.2,0C-107.9,241.5-108,241.5-108.1,241.5z"/>
		<path class="st0" d="M-105.8,241.6c0,0,0.1,0,0.2,0C-105.7,241.6-105.8,241.6-105.8,241.6z"/>
		<path class="st0" d="M-101.1,244C-101.1,244-101.1,244.1-101.1,244C-101.1,244.1-101.1,244-101.1,244z"/>
		<path class="st0" d="M-100.9,244.3C-100.9,244.3-100.9,244.3-100.9,244.3C-100.8,244.3-100.9,244.3-100.9,244.3z"/>
		<path class="st0" d="M-101,244.1C-101,244.2-101,244.2-101,244.1C-101,244.2-101,244.2-101,244.1z"/>
		<path class="st0" d="M-100.7,244.6C-100.7,244.6-100.6,244.6-100.7,244.6C-100.6,244.6-100.7,244.6-100.7,244.6z"/>
		<path class="st0" d="M-100.8,244.4C-100.8,244.4-100.8,244.5-100.8,244.4C-100.7,244.5-100.8,244.4-100.8,244.4z"/>
		<path class="st0" d="M-100.4,245C-100.4,245-100.3,245.1-100.4,245C-100.4,245.1-100.4,245-100.4,245z"/>
		<path class="st0" d="M-100.6,244.7C-100.6,244.7-100.5,244.8-100.6,244.7C-100.5,244.8-100.6,244.7-100.6,244.7z"/>
		<path class="st0" d="M-100.5,244.8C-100.5,244.9-100.4,244.9-100.5,244.8C-100.5,244.9-100.5,244.9-100.5,244.8z"/>
		<path class="st0" d="M-101.5,243.6c0,0,0.1,0.1,0.1,0.1C-101.4,243.7-101.5,243.7-101.5,243.6z"/>
		<path class="st0" d="M-104,242c0,0,0.1,0,0.2,0.1C-103.9,242.1-104,242-104,242z"/>
		<path class="st0" d="M-104.5,241.9c0.1,0,0.3,0.1,0.4,0.1C-104.2,242-104.4,241.9-104.5,241.9z"/>
		<path class="st0" d="M-103.8,242.1c0,0,0.1,0,0.1,0.1C-103.7,242.2-103.8,242.1-103.8,242.1z"/>
		<path class="st0" d="M-104.7,241.8c0,0,0.1,0,0.2,0C-104.6,241.8-104.7,241.8-104.7,241.8z"/>
		<path class="st0" d="M-101.3,243.9C-101.2,243.9-101.2,243.9-101.3,243.9C-101.2,243.9-101.2,243.9-101.3,243.9z"/>
		<path class="st0" d="M-101.4,243.7c0,0,0.1,0.1,0.1,0.1C-101.3,243.8-101.3,243.8-101.4,243.7z"/>
		<path class="st0" d="M-104.9,241.7c0,0,0.1,0,0.2,0C-104.8,241.8-104.9,241.8-104.9,241.7z"/>
		<path class="st0" d="M-101.6,243.5c0,0,0.1,0.1,0.1,0.1C-101.6,243.6-101.6,243.5-101.6,243.5z"/>
		<path class="st0" d="M-106.1,241.5c0.1,0,0.1,0,0.2,0C-106,241.5-106.1,241.5-106.1,241.5z"/>
		<path class="st0" d="M-114.5,246.3C-114.5,246.2-114.5,246.2-114.5,246.3C-114.4,246.2-114.5,246.2-114.5,246.3z"/>
		<path class="st0" d="M-114.5,246.5C-114.5,246.4-114.5,246.4-114.5,246.5C-114.5,246.4-114.5,246.4-114.5,246.5z"/>
		<path class="st0" d="M-114.6,246.8C-114.6,246.8-114.6,246.7-114.6,246.8C-114.6,246.7-114.6,246.8-114.6,246.8z"/>
		<path class="st0" d="M-114.7,247.1C-114.7,247.1-114.7,247-114.7,247.1C-114.7,247-114.7,247.1-114.7,247.1z"/>
		<path class="st0" d="M-114.7,246.9C-114.7,246.9-114.6,246.9-114.7,246.9C-114.6,246.9-114.6,246.9-114.7,246.9z"/>
		<path class="st0" d="M-114.3,245.8C-114.3,245.8-114.3,245.7-114.3,245.8C-114.3,245.7-114.3,245.8-114.3,245.8z"/>
		<path class="st0" d="M-114.4,246.1C-114.4,246.1-114.4,246.1-114.4,246.1C-114.4,246.1-114.4,246.1-114.4,246.1z"/>
		<path class="st0" d="M-114.3,246C-114.3,245.9-114.3,245.9-114.3,246C-114.3,245.9-114.3,245.9-114.3,246z"/>
		<path class="st0" d="M-114.8,247.6C-114.8,247.6-114.8,247.6-114.8,247.6C-114.8,247.6-114.8,247.6-114.8,247.6z"/>
		<path class="st0" d="M-114.8,248c0,0,0-0.1,0-0.1C-114.8,247.9-114.8,248-114.8,248z"/>
		<path class="st0" d="M-114.7,247.3C-114.7,247.3-114.7,247.2-114.7,247.3C-114.7,247.2-114.7,247.3-114.7,247.3z"/>
		<path class="st0" d="M-114.8,248.5c0-0.1,0-0.2,0-0.2C-114.8,248.3-114.8,248.4-114.8,248.5z"/>
		<path class="st0" d="M-114.8,248.7c0-0.1,0-0.1,0-0.2C-114.8,248.6-114.8,248.6-114.8,248.7z"/>
		<path class="st0" d="M-114.8,248.2c0-0.1,0-0.1,0-0.2C-114.8,248.1-114.8,248.2-114.8,248.2z"/>
		<path class="st0" d="M-114.7,247.5C-114.7,247.4-114.7,247.4-114.7,247.5C-114.7,247.4-114.7,247.4-114.7,247.5z"/>
		<path class="st0" d="M-114.2,245.7C-114.2,245.6-114.2,245.6-114.2,245.7C-114.2,245.6-114.2,245.6-114.2,245.7z"/>
		<path class="st0" d="M-114.8,247.8c0,0,0-0.1,0-0.1C-114.8,247.7-114.8,247.8-114.8,247.8z"/>
		<path class="st0" d="M-112.9,243.8c0,0,0.1-0.1,0.1-0.1C-112.9,243.7-112.9,243.8-112.9,243.8z"/>
		<path class="st0" d="M-113.1,243.9C-113,243.9-113,243.9-113.1,243.9C-113,243.9-113,243.9-113.1,243.9z"/>
		<path class="st0" d="M-112.8,243.7c0,0,0.1-0.1,0.1-0.1C-112.7,243.6-112.8,243.6-112.8,243.7z"/>
		<path class="st0" d="M-110.1,242c0.1,0,0.3-0.1,0.4-0.1C-109.8,241.9-110,241.9-110.1,242z"/>
		<path class="st0" d="M-114.1,245.5C-114.1,245.5-114.1,245.4-114.1,245.5C-114.1,245.4-114.1,245.5-114.1,245.5z"/>
		<path class="st0" d="M-113.3,244.2C-113.3,244.2-113.2,244.1-113.3,244.2C-113.2,244.1-113.3,244.2-113.3,244.2z"/>
		<path class="st0" d="M-112.7,243.6c0,0,0.1-0.1,0.1-0.1C-112.6,243.5-112.6,243.5-112.7,243.6z"/>
		<path class="st0" d="M-110.3,242.1c0,0,0.1,0,0.2-0.1C-110.2,242-110.3,242-110.3,242.1z"/>
		<path class="st0" d="M-110.5,242.2c0,0,0.1,0,0.1-0.1C-110.4,242.1-110.5,242.1-110.5,242.2z"/>
		<path class="st0" d="M-113.2,244.1C-113.1,244-113.1,244-113.2,244.1C-113.1,244-113.1,244-113.2,244.1z"/>
		<path class="st0" d="M-114,245.2C-114,245.1-113.9,245.1-114,245.2C-113.9,245.1-114,245.1-114,245.2z"/>
		<path class="st0" d="M-113.8,244.9C-113.8,244.9-113.8,244.8-113.8,244.9C-113.8,244.8-113.8,244.9-113.8,244.9z"/>
		<path class="st0" d="M-113.9,245C-113.9,245-113.9,245-113.9,245C-113.8,245-113.9,245-113.9,245z"/>
		<path class="st0" d="M-114.1,245.3C-114.1,245.3-114,245.3-114.1,245.3C-114,245.3-114,245.3-114.1,245.3z"/>
		<path class="st0" d="M-113.5,244.5C-113.5,244.4-113.5,244.4-113.5,244.5C-113.5,244.4-113.5,244.4-113.5,244.5z"/>
		<path class="st0" d="M-113.4,244.3C-113.4,244.3-113.3,244.3-113.4,244.3C-113.3,244.3-113.4,244.3-113.4,244.3z"/>
		<path class="st0" d="M-113.7,244.8C-113.7,244.7-113.7,244.7-113.7,244.8C-113.7,244.7-113.7,244.7-113.7,244.8z"/>
		<path class="st0" d="M-113.6,244.6C-113.6,244.6-113.6,244.6-113.6,244.6C-113.6,244.6-113.6,244.6-113.6,244.6z"/>
		<path class="st0" d="M-114.6,246.6C-114.6,246.6-114.6,246.5-114.6,246.6C-114.6,246.5-114.6,246.6-114.6,246.6z"/>
		<path class="st0" d="M-99.6,246.7C-99.6,246.8-99.6,246.8-99.6,246.7C-99.6,246.8-99.6,246.8-99.6,246.7z"/>
		<path class="st0" d="M-99.7,246.6C-99.7,246.6-99.7,246.6-99.7,246.6C-99.7,246.6-99.7,246.6-99.7,246.6z"/>
		<path class="st0" d="M-99.6,246.9C-99.6,246.9-99.6,247-99.6,246.9C-99.6,247-99.6,246.9-99.6,246.9z"/>
		<path class="st0" d="M-99.6,247.1C-99.6,247.1-99.5,247.1-99.6,247.1C-99.6,247.1-99.6,247.1-99.6,247.1z"/>
		<path class="st0" d="M-99.5,247.2C-99.5,247.3-99.5,247.3-99.5,247.2C-99.5,247.3-99.5,247.3-99.5,247.2z"/>
		<path class="st0" d="M-99.9,246.1C-99.8,246.1-99.8,246.1-99.9,246.1C-99.8,246.1-99.8,246.1-99.9,246.1z"/>
		<path class="st0" d="M-99.8,246.2C-99.8,246.3-99.8,246.3-99.8,246.2C-99.8,246.3-99.8,246.3-99.8,246.2z"/>
		<path class="st0" d="M-99.7,246.4C-99.7,246.4-99.7,246.5-99.7,246.4C-99.7,246.5-99.7,246.4-99.7,246.4z"/>
		<path class="st0" d="M-99.4,248.3c0,0.1,0,0.2,0,0.2C-99.4,248.4-99.4,248.4-99.4,248.3z"/>
		<path class="st0" d="M-99.9,245.9C-99.9,245.9-99.9,246-99.9,245.9C-99.9,246-99.9,245.9-99.9,245.9z"/>
		<path class="st0" d="M-99.4,248.1c0,0.1,0,0.1,0,0.2C-99.4,248.2-99.4,248.2-99.4,248.1z"/>
		<path class="st0" d="M-100,248c-0.5,0.3-1.1,0.3-1.5-0.1l0,0c-0.4-0.4-0.5-1-0.1-1.5c-0.5-0.1-1-0.6-1-1.2l0,0
			c0-0.6,0.4-1.1,1-1.1c-0.1-0.2-0.2-0.5-0.2-0.7c0,0,0.1,0.1,0.1,0.1c-0.6-0.5-1.2-1-2-1.3c0.1,0,0.1,0.1,0.2,0.1
			c-0.2,0.4-0.5,0.6-0.9,0.7c0.3,0.5,0.3,1.1-0.1,1.5l0,0c-0.4,0.4-1,0.5-1.5,0.1c-0.1,0.5-0.6,1-1.2,1c-0.6,0-1.1-0.4-1.1-1
			c-0.5,0.3-1.1,0.3-1.5-0.1l0,0c-0.4-0.4-0.5-1-0.1-1.5c-0.4-0.1-0.7-0.3-0.9-0.7c0.1,0,0.1-0.1,0.2-0.1c-0.7,0.3-1.4,0.8-2,1.3
			c0,0,0.1-0.1,0.1-0.1c0,0.3-0.1,0.5-0.2,0.7c0.5,0.1,1,0.6,1,1.2l0,0c0,0.6-0.4,1.1-1,1.1c0.3,0.5,0.3,1.1-0.1,1.5
			c-0.4,0.4-1,0.5-1.5,0.1c-0.1,0.3-0.3,0.6-0.5,0.8c0.1,0.9,0.4,1.8,0.8,2.6c-0.3,0.4-0.5,0.9-0.5,1.5c0,1.4,1.1,2.5,2.5,2.5
			c0.1,0,0.3,0,0.4,0l0,3.8c0,0.3,1.5,1.6,4.4,1.6c2.9,0,4.4-1.3,4.4-1.6l0-3.8c0.1,0,0.3,0,0.4,0c1.4,0,2.5-1.1,2.5-2.5
			c0-0.6-0.2-1.1-0.5-1.5c0.5-0.8,0.8-1.7,0.8-2.6C-99.7,248.6-99.9,248.3-100,248z M-103.7,243.3c0,0,0.1,0,0.2,0c0,0,0.1,0,0.2,0
			c0.1,0,0.1,0,0.2,0.1c0,0,0.1,0,0.1,0s0.1,0,0.1,0c0,0,0,0,0.1,0.1c0,0,0,0.1,0,0.1c0,0,0,0.1,0,0.1c0,0,0,0,0,0.1
			c0,0,0,0.1,0,0.1l0,0c0,0,0,0-0.1,0c0,0,0,0-0.1,0c0,0,0,0-0.1,0s0,0-0.1,0s0,0-0.1,0s0,0,0-0.1c0,0,0,0-0.1-0.1
			c0,0-0.1-0.1-0.1-0.1s-0.1-0.1-0.1-0.1C-103.6,243.3-103.7,243.3-103.7,243.3L-103.7,243.3z M-105.8,245.2c0,0,0.1,0,0.2,0.1
			c0,0,0,0,0.1,0.1s0,0,0.1,0.1c0,0,0.1,0.1,0.1,0.1c0,0,0,0.1,0.1,0.1c0,0,0,0.1,0.1,0.1s0,0.1,0.1,0.1s0,0.1,0,0.1
			c0,0,0,0.1,0,0.1c0,0,0,0.1,0,0.1c0,0,0,0,0,0.1c0,0,0,0,0,0h0c0,0,0,0,0-0.1c0,0,0,0,0-0.1s0,0,0-0.1c0,0,0,0,0-0.1
			c0,0,0-0.1,0-0.1c0,0,0-0.1,0-0.1s0-0.1,0-0.1c0-0.1,0-0.1-0.1-0.2c0-0.1-0.1-0.1-0.1-0.2C-105.7,245.3-105.7,245.2-105.8,245.2
			L-105.8,245.2z M-107.1,246.4c0,0,0.5,0.6,0.5,1.1c0,0.5-0.2,0.6-0.5,0.6c-0.3,0-0.5-0.2-0.5-0.7
			C-107.6,247-107.1,246.4-107.1,246.4z M-109.1,245.9c0,0,0-0.1,0.1-0.1c0,0,0-0.1,0.1-0.1c0,0,0-0.1,0.1-0.1c0,0,0.1-0.1,0.1-0.1
			c0,0,0.1-0.1,0.1-0.1c0,0,0.1,0,0.1-0.1c0.1-0.1,0.2-0.1,0.2-0.1l0,0c0,0,0,0.1-0.1,0.2c0,0-0.1,0.1-0.1,0.2s0,0.1-0.1,0.2
			c0,0,0,0.1,0,0.1c0,0,0,0.1,0,0.1c0,0,0,0.1,0,0.1c0,0,0,0,0,0.1s0,0,0,0.1c0,0,0,0,0,0.1c0,0,0,0.1,0,0.1h0c0,0,0,0,0,0
			c0,0,0,0,0-0.1s0-0.1,0-0.1c0,0,0-0.1,0-0.1C-109.1,246-109.1,245.9-109.1,245.9z M-111.4,243.5
			C-111.4,243.5-111.3,243.5-111.4,243.5c0.1-0.1,0.1-0.2,0.1-0.2c0,0,0.1,0,0.1,0s0.1,0,0.1,0c0.1,0,0.1,0,0.2,0c0.1,0,0.1,0,0.2,0
			c0.1,0,0.2,0,0.2,0l0,0c0,0-0.1,0-0.1,0.1c0,0-0.1,0.1-0.1,0.1c0,0-0.1,0.1-0.1,0.1c0,0,0,0-0.1,0.1c0,0,0,0,0,0.1s0,0-0.1,0
			c0,0,0,0-0.1,0s0,0-0.1,0s0,0-0.1,0c0,0-0.1,0-0.1,0l0,0c0,0,0,0,0-0.1C-111.4,243.7-111.4,243.7-111.4,243.5
			C-111.4,243.6-111.4,243.6-111.4,243.5z M-112.3,252.5c-0.3-0.3-0.3-0.8-0.1-1.1c-0.4-0.1-0.7-0.5-0.7-0.9c0-0.4,0.3-0.8,0.7-0.9
			c-0.2-0.3-0.2-0.8,0.1-1.1l0,0c0.3-0.3,0.8-0.3,1.1-0.1c0.1-0.4,0.5-0.7,0.9-0.7s0.8,0.3,0.9,0.7c0.3-0.2,0.8-0.2,1.1,0.1
			c0.3,0.3,0.3,0.8,0.1,1.1c0.4,0.1,0.7,0.5,0.7,0.9c0,0.4-0.3,0.8-0.7,0.9c0.2,0.3,0.2,0.8-0.1,1.1c-0.3,0.3-0.8,0.3-1.1,0.1
			c-0.1,0.4-0.5,0.7-0.9,0.7c-0.4,0-0.8-0.3-0.9-0.7C-111.5,252.8-112,252.8-112.3,252.5z M-110.1,258.2c0,0.3-0.3,0.6-0.6,0.6h-0.1
			c-0.3,0-0.6-0.3-0.6-0.6v-1h1.3V258.2z M-110.1,257h-1.3v-1c0-0.3,0.3-0.6,0.6-0.6h0.1c0.3,0,0.6,0.3,0.6,0.6V257z M-108.7,258.2
			c0,0.3-0.3,0.6-0.6,0.6h-0.1c-0.3,0-0.6-0.3-0.6-0.6v-1h1.3V258.2z M-108.7,257h-1.3v-1c0-0.3,0.3-0.6,0.6-0.6h0.1
			c0.3,0,0.6,0.3,0.6,0.6V257z M-107.2,258.2c0,0.3-0.3,0.6-0.6,0.6h-0.1c-0.3,0-0.6-0.3-0.6-0.6v-1h1.3V258.2z M-107.2,257h-1.3v-1
			c0-0.3,0.3-0.6,0.6-0.6h0.1c0.3,0,0.6,0.3,0.6,0.6V257z M-107.9,253.4c0-0.9,0.8-1.9,0.8-1.9s0.8,1.1,0.8,2c0,0.7-0.3,1-0.6,1.1
			c-0.1,0-0.2,0-0.2,0C-107.6,254.6-107.9,254.3-107.9,253.4z M-105.8,258.2c0,0.3-0.3,0.6-0.6,0.6h-0.1c-0.3,0-0.6-0.3-0.6-0.6v-1
			h1.3V258.2z M-105.8,257.1h-1.3v-1c0-0.3,0.3-0.6,0.6-0.6h0.1c0.3,0,0.6,0.3,0.6,0.6V257.1z M-104.4,258.2c0,0.3-0.3,0.6-0.6,0.6
			h-0.1c-0.3,0-0.6-0.3-0.6-0.6v-1h1.3V258.2z M-104.4,257.1h-1.3v-1c0-0.3,0.3-0.6,0.6-0.6h0.1c0.3,0,0.6,0.3,0.6,0.6L-104.4,257.1
			z M-102.9,258.2c0,0.3-0.3,0.6-0.6,0.6h-0.1c-0.3,0-0.6-0.3-0.6-0.6v-1h1.3L-102.9,258.2z M-102.9,257.1h-1.3v-1
			c0-0.3,0.3-0.6,0.6-0.6h0.1c0.3,0,0.6,0.3,0.6,0.6V257.1z M-101.9,252.5c-0.3,0.3-0.8,0.3-1.1,0.1c-0.1,0.4-0.5,0.7-0.9,0.7l0,0
			c-0.4,0-0.8-0.3-0.9-0.7c-0.3,0.2-0.8,0.2-1.1-0.1c-0.3-0.3-0.3-0.8-0.1-1.1c-0.4-0.1-0.7-0.5-0.7-0.9c0-0.4,0.3-0.8,0.7-0.9
			c-0.2-0.3-0.2-0.8,0.1-1.1c0.3-0.3,0.8-0.3,1.1-0.1c0.1-0.4,0.5-0.7,0.9-0.7l0,0c0.4,0,0.8,0.3,0.9,0.7c0.4-0.2,0.8-0.2,1.1,0.1
			c0.3,0.3,0.3,0.8,0.1,1.1c0.4,0.1,0.7,0.5,0.7,0.9c0,0.4-0.3,0.8-0.7,0.9C-101.6,251.7-101.6,252.2-101.9,252.5z"/>
		<path class="st0" d="M-99.4,247.9c0,0,0,0.1,0,0.1C-99.4,248-99.4,248-99.4,247.9z"/>
		<path class="st0" d="M-99.5,247.6C-99.5,247.6-99.5,247.6-99.5,247.6C-99.5,247.6-99.5,247.6-99.5,247.6z"/>
		<path class="st0" d="M-99.5,247.4C-99.5,247.4-99.5,247.5-99.5,247.4C-99.5,247.5-99.5,247.4-99.5,247.4z"/>
		<path class="st0" d="M-99.5,247.8c0,0,0,0.1,0,0.1C-99.5,247.8-99.5,247.8-99.5,247.8z"/>
		<path class="st0" d="M-99.4,248.6c0,0.1,0,0.1,0,0.2C-99.5,248.7-99.4,248.6-99.4,248.6z"/>
		<path class="st0" d="M-100.2,245.3C-100.2,245.3-100.2,245.4-100.2,245.3C-100.2,245.4-100.2,245.3-100.2,245.3z"/>
		<path class="st0" d="M-100,245.7C-100,245.8-100,245.8-100,245.7C-100,245.8-100,245.8-100,245.7z"/>
		<path class="st0" d="M-100.1,245.4C-100.1,245.5-100.1,245.5-100.1,245.4C-100.1,245.5-100.1,245.5-100.1,245.4z"/>
		<path class="st0" d="M-100.1,245.6C-100,245.6-100,245.7-100.1,245.6C-100,245.7-100,245.6-100.1,245.6z"/>
		<path class="st0" d="M-110.3,253.3c0.4,0,0.8-0.3,0.9-0.7c0.3,0.2,0.8,0.2,1.1-0.1c0.3-0.3,0.3-0.8,0.1-1.1
			c0.4-0.1,0.7-0.4,0.7-0.9c0-0.4-0.3-0.8-0.7-0.9c0.2-0.3,0.2-0.8-0.1-1.1c-0.3-0.3-0.8-0.3-1.1-0.1c-0.1-0.4-0.4-0.7-0.9-0.7
			c-0.4,0-0.8,0.3-0.9,0.7c-0.3-0.2-0.8-0.2-1.1,0.1l0,0c-0.3,0.3-0.3,0.8-0.1,1.1c-0.4,0.1-0.7,0.4-0.7,0.9c0,0.4,0.3,0.8,0.7,0.9
			c-0.2,0.3-0.2,0.8,0.1,1.1c0.3,0.3,0.8,0.3,1.1,0.1C-111.1,253-110.7,253.3-110.3,253.3z M-112.1,250.3c0.1-1.1,1.1-1.9,2.2-1.8
			c1.1,0.1,1.6,1.1,1.5,2.2c-0.1,1.1-1.1,1.9-2.2,1.8C-111.7,252.3-112.2,251.4-112.1,250.3z"/>
		<path class="st0" d="M-101.1,250.5c0-0.4-0.3-0.8-0.7-0.9c0.2-0.3,0.2-0.8-0.1-1.1c-0.3-0.3-0.8-0.3-1.1-0.1
			c-0.1-0.4-0.4-0.7-0.9-0.7l0,0c-0.4,0-0.8,0.3-0.9,0.7c-0.3-0.2-0.8-0.2-1.1,0.1c-0.3,0.3-0.3,0.8-0.1,1.1
			c-0.4,0.1-0.7,0.4-0.7,0.9c0,0.4,0.3,0.8,0.7,0.9c-0.2,0.3-0.2,0.8,0.1,1.1c0.3,0.3,0.8,0.3,1.1,0.1c0.1,0.4,0.4,0.7,0.9,0.7l0,0
			c0.4,0,0.8-0.3,0.9-0.7c0.3,0.2,0.8,0.2,1.1-0.1c0.3-0.3,0.3-0.8,0.1-1.1C-101.4,251.3-101.1,250.9-101.1,250.5z M-103.7,252.5
			c-1.1,0.1-2.1-0.7-2.2-1.8c-0.1-1.1,0.4-2.1,1.5-2.2c1.1-0.1,2.1,0.7,2.2,1.8C-102.1,251.4-102.6,252.4-103.7,252.5z"/>
		<path class="st0" d="M-107.8,255.5h-0.1c-0.3,0-0.6,0.3-0.6,0.6v1h1.3v-1C-107.2,255.7-107.5,255.5-107.8,255.5z"/>
		<path class="st0" d="M-109.2,255.5h-0.1c-0.3,0-0.6,0.3-0.6,0.6v1h1.3v-1C-108.7,255.7-108.9,255.5-109.2,255.5z"/>
		<path class="st0" d="M-110.7,255.4h-0.1c-0.3,0-0.6,0.3-0.6,0.6v1h1.3v-1C-110.1,255.7-110.3,255.4-110.7,255.4z"/>
		<path class="st0" d="M-105,255.5h-0.1c-0.3,0-0.6,0.3-0.6,0.6v1h1.3v-1C-104.4,255.7-104.6,255.5-105,255.5z"/>
		<path class="st0" d="M-106.4,255.5L-106.4,255.5c-0.4,0-0.7,0.3-0.7,0.6v1h1.3v-1C-105.8,255.7-106.1,255.5-106.4,255.5z"/>
		<path class="st0" d="M-103.5,255.5h-0.1c-0.3,0-0.6,0.3-0.6,0.6v1h1.3v-1C-102.9,255.7-103.2,255.5-103.5,255.5z"/>
		<path class="st0" d="M-107.1,258.2c0,0.3,0.3,0.6,0.6,0.6h0.1c0.3,0,0.6-0.3,0.6-0.6v-1h-1.3V258.2z"/>
		<path class="st0" d="M-105.6,258.2c0,0.3,0.3,0.6,0.6,0.6h0.1c0.3,0,0.6-0.3,0.6-0.6v-1h-1.3V258.2z"/>
		<path class="st0" d="M-104.2,258.2c0,0.3,0.3,0.6,0.6,0.6h0.1c0.3,0,0.6-0.3,0.6-0.6v-1h-1.3V258.2z"/>
		<path class="st0" d="M-109.9,258.2c0,0.3,0.3,0.6,0.6,0.6h0.1c0.3,0,0.6-0.3,0.6-0.6v-1h-1.3V258.2z"/>
		<path class="st0" d="M-108.5,258.2c0,0.3,0.3,0.6,0.6,0.6h0.1c0.3,0,0.6-0.3,0.6-0.6v-1h-1.3V258.2z"/>
		<path class="st0" d="M-111.4,258.2c0,0.3,0.3,0.6,0.6,0.6h0.1c0.3,0,0.6-0.3,0.6-0.6v-1h-1.3L-111.4,258.2z"/>
		<path class="st0" d="M-108.4,250.7c0.1-1.1-0.4-2.1-1.5-2.2c-1.1-0.1-2.1,0.7-2.2,1.8s0.4,2.1,1.5,2.2
			C-109.5,252.6-108.5,251.8-108.4,250.7z"/>
		<path class="st0" d="M-104.4,248.5c-1.1,0.1-1.6,1.1-1.5,2.2c0.1,1.1,1.1,1.9,2.2,1.8c1.1-0.1,1.6-1.1,1.5-2.2
			C-102.3,249.2-103.3,248.4-104.4,248.5z"/>
		<path class="st0" d="M-108.1,241.5L-108.1,241.5L-108.1,241.5z"/>
		<path class="st0" d="M-107.6,241.5C-107.6,241.5-107.6,241.5-107.6,241.5C-107.6,241.5-107.6,241.5-107.6,241.5z"/>
		<path class="st0" d="M-107.4,241.5C-107.4,241.5-107.4,241.5-107.4,241.5C-107.4,241.5-107.4,241.5-107.4,241.5z"/>
		<path class="st0" d="M-108.4,241.5C-108.3,241.5-108.3,241.5-108.4,241.5C-108.3,241.5-108.3,241.5-108.4,241.5z"/>
		<path class="st0" d="M-107.9,241.5C-107.8,241.5-107.8,241.5-107.9,241.5C-107.8,241.5-107.8,241.5-107.9,241.5z"/>
		<path class="st0" d="M-110.6,242.2C-110.6,242.2-110.5,242.2-110.6,242.2C-110.5,242.2-110.6,242.2-110.6,242.2z"/>
		<path class="st0" d="M-109.7,241.9C-109.7,241.9-109.7,241.8-109.7,241.9C-109.7,241.8-109.7,241.8-109.7,241.9z"/>
		<path class="st0" d="M-110.2,242C-110.1,242-110.1,242-110.2,242C-110.1,242-110.1,242-110.2,242z"/>
		<path class="st0" d="M-108.6,241.6C-108.6,241.6-108.5,241.6-108.6,241.6C-108.5,241.6-108.6,241.6-108.6,241.6z"/>
		<path class="st0" d="M-110.4,242.1C-110.3,242.1-110.3,242.1-110.4,242.1C-110.3,242.1-110.3,242.1-110.4,242.1z"/>
		<path class="st0" d="M-108.8,241.6C-108.8,241.6-108.8,241.6-108.8,241.6C-108.8,241.6-108.8,241.6-108.8,241.6z"/>
		<path class="st0" d="M-109.5,241.8C-109.5,241.8-109.5,241.8-109.5,241.8C-109.5,241.8-109.5,241.8-109.5,241.8z"/>
		<path class="st0" d="M-109.3,241.7C-109.3,241.7-109.3,241.7-109.3,241.7C-109.3,241.7-109.3,241.7-109.3,241.7z"/>
		<path class="st0" d="M-106.9,241.5C-106.9,241.5-106.8,241.5-106.9,241.5C-106.8,241.5-106.9,241.5-106.9,241.5z"/>
		<path class="st0" d="M-105.9,241.5C-105.9,241.5-105.9,241.5-105.9,241.5C-105.9,241.5-105.9,241.5-105.9,241.5z"/>
		<path class="st0" d="M-106.1,241.5L-106.1,241.5L-106.1,241.5z"/>
		<path class="st0" d="M-105.7,241.6C-105.7,241.6-105.6,241.6-105.7,241.6C-105.6,241.6-105.7,241.6-105.7,241.6z"/>
		<path class="st0" d="M-105.5,241.6C-105.4,241.6-105.4,241.6-105.5,241.6C-105.4,241.6-105.4,241.6-105.5,241.6z"/>
		<path class="st0" d="M-104.8,241.8C-104.8,241.8-104.7,241.8-104.8,241.8C-104.7,241.8-104.8,241.8-104.8,241.8z"/>
		<path class="st0" d="M-105,241.7C-105,241.7-104.9,241.7-105,241.7C-104.9,241.7-105,241.7-105,241.7z"/>
		<path class="st0" d="M-104.5,241.9C-104.5,241.9-104.5,241.9-104.5,241.9C-104.5,241.9-104.5,241.9-104.5,241.9z"/>
		<path class="st0" d="M-105.2,241.7L-105.2,241.7L-105.2,241.7z"/>
		<path class="st0" d="M-106.6,241.5C-106.6,241.5-106.6,241.5-106.6,241.5C-106.6,241.5-106.6,241.5-106.6,241.5z"/>
		<path class="st0" d="M-103.9,242.1C-103.9,242.1-103.9,242.1-103.9,242.1C-103.9,242.1-103.9,242.1-103.9,242.1z"/>
		<path class="st0" d="M-103.7,242.2C-103.7,242.2-103.7,242.2-103.7,242.2C-103.7,242.2-103.7,242.2-103.7,242.2z"/>
		<path class="st0" d="M-106.4,241.5C-106.4,241.5-106.4,241.5-106.4,241.5C-106.4,241.5-106.4,241.5-106.4,241.5z"/>
		<path class="st0" d="M-104.1,242C-104.1,242-104.1,242-104.1,242C-104.1,242-104.1,242-104.1,242z"/>
		<path class="st0" d="M-109.9,243c-0.3,0.5-0.3,1.1,0.1,1.5l0,0c0.4,0.4,1,0.5,1.5,0.1c0.1,0.5,0.6,1,1.1,1c0.6,0,1.1-0.4,1.2-1
			c0.5,0.3,1.1,0.3,1.5-0.1l0,0c0.4-0.4,0.5-1,0.1-1.5c0.4-0.1,0.7-0.3,0.9-0.7c-0.1,0-0.1-0.1-0.2-0.1c0,0,0,0,0,0
			c0,0-0.1,0-0.1-0.1c0,0,0,0-0.1,0c0,0-0.1,0-0.2-0.1c0,0,0,0,0,0c-0.1,0-0.3-0.1-0.4-0.1c0,0,0,0-0.1,0c0,0-0.1,0-0.2,0
			c0,0,0,0-0.1,0c0,0-0.1,0-0.2,0c0,0,0,0-0.1,0c-0.1,0-0.1,0-0.2,0l0,0c-0.1,0-0.1,0-0.2,0c0,0,0,0-0.1,0c0,0-0.1,0-0.2,0
			c0,0,0,0-0.1,0c0,0-0.1,0-0.2,0c0,0,0,0-0.1,0c-0.1,0-0.1,0-0.2,0l0,0c-0.1,0-0.1,0-0.2,0c0,0,0,0-0.1,0c0,0-0.1,0-0.2,0
			c0,0,0,0-0.1,0c0,0-0.1,0-0.2,0c0,0,0,0-0.1,0c-0.1,0-0.2,0-0.2,0c-0.1,0-0.2,0-0.2,0c0,0,0,0-0.1,0c0,0-0.1,0-0.2,0
			c0,0,0,0-0.1,0c0,0-0.1,0-0.2,0c0,0,0,0-0.1,0c-0.1,0-0.1,0-0.2,0l0,0c-0.1,0-0.1,0-0.2,0c0,0,0,0-0.1,0c0,0-0.1,0-0.2,0
			c0,0,0,0-0.1,0c0,0-0.1,0-0.2,0c0,0,0,0-0.1,0c-0.1,0-0.3,0.1-0.4,0.1c0,0,0,0-0.1,0c0,0-0.1,0-0.2,0c0,0,0,0-0.1,0
			c0,0-0.1,0-0.2,0c0,0,0,0-0.1,0c-0.1,0-0.3,0.1-0.4,0.1c0,0,0,0,0,0c0,0-0.1,0-0.2,0.1c0,0,0,0-0.1,0c0,0-0.1,0-0.1,0.1
			c0,0,0,0,0,0c-0.1,0-0.1,0.1-0.2,0.1C-110.6,242.6-110.3,242.9-109.9,243z"/>
		<path class="st0" d="M-99.9,246C-99.9,246-99.9,246.1-99.9,246C-99.9,246-99.9,246-99.9,246z"/>
		<path class="st0" d="M-101,244.1C-101,244.1-101,244.1-101,244.1C-101,244.1-101,244.1-101,244.1z"/>
		<path class="st0" d="M-101.3,243.8C-101.3,243.9-101.3,243.9-101.3,243.8C-101.3,243.9-101.3,243.9-101.3,243.8z"/>
		<path class="st0" d="M-100.3,245.1C-100.3,245.1-100.3,245.1-100.3,245.1C-100.3,245.1-100.3,245.1-100.3,245.1z"/>
		<path class="st0" d="M-100.7,244.5C-100.7,244.5-100.7,244.5-100.7,244.5C-100.7,244.5-100.7,244.5-100.7,244.5z"/>
		<path class="st0" d="M-99.8,246.2C-99.8,246.2-99.8,246.2-99.8,246.2C-99.8,246.2-99.8,246.2-99.8,246.2z"/>
		<path class="st0" d="M-101.4,243.7C-101.4,243.7-101.4,243.7-101.4,243.7C-101.4,243.7-101.4,243.7-101.4,243.7z"/>
		<path class="st0" d="M-101.5,243.6L-101.5,243.6C-101.5,243.6-101.5,243.6-101.5,243.6z"/>
		<path class="st0" d="M-99.7,246.5C-99.7,246.5-99.7,246.5-99.7,246.5C-99.7,246.5-99.7,246.5-99.7,246.5z"/>
		<path class="st0" d="M-101.2,244C-101.2,244-101.1,244-101.2,244C-101.1,244-101.2,244-101.2,244z"/>
		<path class="st0" d="M-100.9,244.2C-100.9,244.3-100.9,244.3-100.9,244.2C-100.9,244.3-100.9,244.3-100.9,244.2z"/>
		<path class="st0" d="M-100,245.8C-99.9,245.9-99.9,245.9-100,245.8C-99.9,245.9-99.9,245.9-100,245.8z"/>
		<path class="st0" d="M-101.7,243.5L-101.7,243.5L-101.7,243.5z"/>
		<path class="st0" d="M-99.8,246.3C-99.7,246.3-99.7,246.4-99.8,246.3C-99.7,246.4-99.7,246.4-99.8,246.3z"/>
		<path class="st0" d="M-99.5,247.7C-99.5,247.7-99.5,247.7-99.5,247.7C-99.5,247.7-99.5,247.7-99.5,247.7z"/>
		<path class="st0" d="M-99.6,247C-99.6,247-99.6,247-99.6,247C-99.6,247-99.6,247-99.6,247z"/>
		<path class="st0" d="M-100.6,244.6C-100.6,244.7-100.6,244.7-100.6,244.6C-100.6,244.7-100.6,244.7-100.6,244.6z"/>
		<path class="st0" d="M-99.5,247.9C-99.5,247.9-99.5,247.9-99.5,247.9C-99.4,247.9-99.5,247.9-99.5,247.9z"/>
		<path class="st0" d="M-99.5,247.2C-99.5,247.2-99.5,247.2-99.5,247.2C-99.5,247.2-99.5,247.2-99.5,247.2z"/>
		<path class="st0" d="M-99.5,247.3C-99.5,247.4-99.5,247.4-99.5,247.3C-99.5,247.4-99.5,247.4-99.5,247.3z"/>
		<path class="st0" d="M-100.8,244.4C-100.8,244.4-100.8,244.4-100.8,244.4C-100.8,244.4-100.8,244.4-100.8,244.4z"/>
		<path class="st0" d="M-99.5,248.8L-99.5,248.8C-99.5,248.8-99.5,248.8-99.5,248.8L-99.5,248.8z"/>
		<path class="st0" d="M-99.5,247.5C-99.5,247.5-99.5,247.5-99.5,247.5C-99.5,247.6-99.5,247.5-99.5,247.5z"/>
		<path class="st0" d="M-100.1,245.5C-100.1,245.6-100.1,245.6-100.1,245.5C-100.1,245.6-100.1,245.6-100.1,245.5z"/>
		<path class="st0" d="M-100,245.7C-100,245.7-100,245.7-100,245.7C-100,245.7-100,245.7-100,245.7z"/>
		<path class="st0" d="M-99.4,248.5C-99.4,248.5-99.4,248.6-99.4,248.5C-99.4,248.6-99.4,248.5-99.4,248.5z"/>
		<path class="st0" d="M-100.2,245.2C-100.2,245.2-100.2,245.3-100.2,245.2C-100.2,245.3-100.2,245.2-100.2,245.2z"/>
		<path class="st0" d="M-99.7,246.7C-99.7,246.7-99.7,246.7-99.7,246.7C-99.7,246.7-99.7,246.7-99.7,246.7z"/>
		<path class="st0" d="M-100.4,244.9C-100.4,244.9-100.4,245-100.4,244.9C-100.4,245-100.4,245-100.4,244.9z"/>
		<path class="st0" d="M-99.4,248.1C-99.4,248.1-99.4,248.1-99.4,248.1C-99.4,248.1-99.4,248.1-99.4,248.1z"/>
		<path class="st0" d="M-99.6,246.8C-99.6,246.9-99.6,246.9-99.6,246.8C-99.6,246.9-99.6,246.8-99.6,246.8z"/>
		<path class="st0" d="M-100.5,244.8C-100.5,244.8-100.5,244.8-100.5,244.8C-100.5,244.8-100.5,244.8-100.5,244.8z"/>
		<path class="st0" d="M-100.2,245.4C-100.2,245.4-100.2,245.4-100.2,245.4C-100.1,245.4-100.2,245.4-100.2,245.4z"/>
		<path class="st0" d="M-101.6,244.1c-0.5,0.1-1,0.6-1,1.1l0,0c0,0.6,0.4,1.1,1,1.2c-0.3,0.5-0.3,1.1,0.1,1.5l0,0
			c0.4,0.4,1,0.5,1.5,0.1c0.1,0.3,0.3,0.6,0.5,0.8v0c0-0.1,0-0.1,0-0.2c0,0,0,0,0,0c0-0.1,0-0.2,0-0.2c0-0.1,0-0.1,0-0.2
			c0,0,0,0,0-0.1c0,0,0-0.1,0-0.1c0,0,0,0,0-0.1c0,0,0-0.1,0-0.1c0,0,0,0,0-0.1s0-0.1,0-0.1c0,0,0,0,0-0.1c0,0,0-0.1,0-0.1
			c0,0,0,0,0-0.1s0-0.1,0-0.1s0,0,0-0.1s0-0.1,0-0.1s0,0,0-0.1s0-0.1,0-0.1c0,0,0,0,0-0.1c0,0,0-0.1,0-0.1s0,0,0-0.1
			c0,0,0-0.1,0-0.1c0,0,0,0,0-0.1c0,0,0-0.1,0-0.1c0,0,0,0,0-0.1c0,0,0-0.1,0-0.1c0,0,0,0,0-0.1c0,0,0-0.1,0-0.1c0,0,0,0,0-0.1
			c0,0,0-0.1,0-0.1c0,0,0,0,0-0.1c0,0,0-0.1,0-0.1c0,0,0,0,0-0.1c0,0,0-0.1,0-0.1c0,0,0,0,0-0.1c0,0,0-0.1,0-0.1c0,0,0,0,0-0.1
			c0,0,0-0.1,0-0.1c0,0,0,0,0-0.1s0-0.1-0.1-0.1c0,0,0,0,0-0.1s0-0.1-0.1-0.1c0,0,0,0,0,0c0,0,0-0.1-0.1-0.1c0,0,0,0,0,0
			c0,0,0-0.1-0.1-0.1c0,0,0,0,0,0c0,0,0-0.1-0.1-0.1c0,0,0,0,0,0c0,0,0-0.1-0.1-0.1c0,0,0,0,0,0c0,0,0-0.1-0.1-0.1c0,0,0,0,0,0
			c0,0-0.1-0.1-0.1-0.1c0,0,0,0,0,0c0,0-0.1-0.1-0.1-0.1c0,0,0,0,0,0c0,0-0.1-0.1-0.1-0.1c0,0,0,0,0,0c0,0-0.1-0.1-0.1-0.1
			c0,0,0,0,0,0c0,0-0.1-0.1-0.1-0.1l0,0c0,0-0.1-0.1-0.1-0.1c0,0,0,0,0,0c0,0-0.1-0.1-0.1-0.1C-101.8,243.6-101.7,243.9-101.6,244.1
			z"/>
		<path class="st0" d="M-114.8,248.1C-114.8,248.1-114.8,248-114.8,248.1C-114.8,248-114.8,248-114.8,248.1z"/>
		<path class="st0" d="M-114.4,246.2C-114.4,246.2-114.4,246.1-114.4,246.2C-114.4,246.1-114.4,246.2-114.4,246.2z"/>
		<path class="st0" d="M-114.8,247.9C-114.8,247.9-114.8,247.8-114.8,247.9C-114.8,247.8-114.8,247.9-114.8,247.9z"/>
		<path class="st0" d="M-114.8,248.5C-114.8,248.5-114.8,248.5-114.8,248.5C-114.8,248.5-114.8,248.5-114.8,248.5z"/>
		<path class="st0" d="M-114.4,246C-114.4,246-114.4,246-114.4,246C-114.4,246-114.4,246-114.4,246z"/>
		<path class="st0" d="M-114.8,247.7C-114.8,247.7-114.8,247.7-114.8,247.7C-114.8,247.7-114.8,247.7-114.8,247.7z"/>
		<path class="st0" d="M-114.8,248.7L-114.8,248.7L-114.8,248.7C-114.8,248.7-114.8,248.7-114.8,248.7z"/>
		<path class="st0" d="M-114.6,246.8C-114.6,246.8-114.6,246.8-114.6,246.8C-114.6,246.8-114.6,246.8-114.6,246.8z"/>
		<path class="st0" d="M-114.6,246.5C-114.5,246.5-114.5,246.5-114.6,246.5C-114.5,246.5-114.5,246.5-114.6,246.5z"/>
		<path class="st0" d="M-114.6,246.7C-114.6,246.7-114.6,246.6-114.6,246.7C-114.6,246.6-114.6,246.7-114.6,246.7z"/>
		<path class="st0" d="M-114.7,247C-114.7,247-114.7,247-114.7,247C-114.7,247-114.7,247-114.7,247z"/>
		<path class="st0" d="M-114.7,247.2C-114.7,247.2-114.7,247.1-114.7,247.2C-114.7,247.1-114.7,247.2-114.7,247.2z"/>
		<path class="st0" d="M-114.5,246.4C-114.5,246.3-114.5,246.3-114.5,246.4C-114.5,246.3-114.5,246.3-114.5,246.4z"/>
		<path class="st0" d="M-114.7,247.4C-114.7,247.3-114.7,247.3-114.7,247.4C-114.7,247.3-114.7,247.3-114.7,247.4z"/>
		<path class="st0" d="M-114.8,247.5C-114.8,247.5-114.8,247.5-114.8,247.5C-114.8,247.5-114.8,247.5-114.8,247.5z"/>
		<path class="st0" d="M-113.3,244.2C-113.3,244.2-113.3,244.2-113.3,244.2C-113.3,244.2-113.3,244.2-113.3,244.2z"/>
		<path class="st0" d="M-113.5,244.5C-113.5,244.5-113.5,244.5-113.5,244.5C-113.5,244.5-113.5,244.5-113.5,244.5z"/>
		<path class="st0" d="M-113.2,244.1C-113.2,244.1-113.2,244.1-113.2,244.1C-113.2,244.1-113.2,244.1-113.2,244.1z"/>
		<path class="st0" d="M-113.4,244.4C-113.4,244.4-113.4,244.3-113.4,244.4C-113.4,244.3-113.4,244.4-113.4,244.4z"/>
		<path class="st0" d="M-113.6,244.7C-113.6,244.6-113.6,244.6-113.6,244.7C-113.6,244.6-113.6,244.6-113.6,244.7z"/>
		<path class="st0" d="M-113.7,244.8C-113.7,244.8-113.7,244.8-113.7,244.8C-113.7,244.8-113.7,244.8-113.7,244.8z"/>
		<path class="st0" d="M-112.8,243.7L-112.8,243.7L-112.8,243.7z"/>
		<path class="st0" d="M-112.7,243.6L-112.7,243.6C-112.7,243.6-112.7,243.6-112.7,243.6z"/>
		<path class="st0" d="M-113.1,244C-113.1,244-113.1,243.9-113.1,244C-113.1,243.9-113.1,244-113.1,244z"/>
		<path class="st0" d="M-113,243.8C-112.9,243.8-112.9,243.8-113,243.8C-112.9,243.8-113,243.8-113,243.8z"/>
		<path class="st0" d="M-114.2,245.7C-114.2,245.7-114.2,245.7-114.2,245.7C-114.2,245.7-114.2,245.7-114.2,245.7z"/>
		<path class="st0" d="M-114.2,245.6C-114.2,245.5-114.2,245.5-114.2,245.6C-114.1,245.5-114.2,245.5-114.2,245.6z"/>
		<path class="st0" d="M-114.1,245.4C-114.1,245.4-114.1,245.4-114.1,245.4C-114.1,245.4-114.1,245.4-114.1,245.4z"/>
		<path class="st0" d="M-112.6,243.5L-112.6,243.5L-112.6,243.5z"/>
		<path class="st0" d="M-113.9,245.1C-113.9,245.1-113.9,245.1-113.9,245.1C-113.9,245.1-113.9,245.1-113.9,245.1z"/>
		<path class="st0" d="M-114,245.2C-114,245.2-114,245.2-114,245.2C-114,245.2-114,245.2-114,245.2z"/>
		<path class="st0" d="M-113.8,244.9C-113.8,244.9-113.8,244.9-113.8,244.9C-113.8,244.9-113.8,244.9-113.8,244.9z"/>
		<path class="st1" d="M-114.3,245.9C-114.3,245.9-114.3,245.9-114.3,245.9C-114.4,245.9-114.4,245.9-114.3,245.9
			c-0.1-0.1-0.1-0.1-0.1-0.1l0-0.1c0,0,0.1-0.1,0.1,0c0,0,0,0,0,0.1c0,0,0,0,0,0L-114.3,245.9C-114.3,245.9-114.3,245.9-114.3,245.9
			z"/>
		<path class="st1" d="M-114.8,248.8C-114.8,248.8-114.8,248.8-114.8,248.8C-114.9,248.8-114.9,248.8-114.8,248.8L-114.8,248.8
			L-114.8,248.8L-114.8,248.8c-0.1-0.2-0.1-0.2-0.1-0.3c0,0,0,0,0,0c0-0.1,0-0.2,0-0.2c0-0.1,0-0.1,0-0.2c0,0,0,0,0-0.1
			c0,0,0-0.1,0-0.1l0.1-0.8l0-0.1c0,0,0,0,0-0.1l0.1-0.5c0,0,0,0,0-0.1l0.1-0.3c0,0,0,0,0-0.1l0.1-0.3c0,0,0,0,0-0.1l0.1-0.2
			c0,0,0-0.1,0-0.1l0.1-0.2c0,0,0,0,0-0.1s0,0,0-0.1l0,0l0.3-0.5c0,0,0-0.1,0.1-0.1l0.2-0.2l0,0l0.1-0.1c0,0,0,0,0,0
			c0,0,0-0.1,0.1-0.1l0.1-0.1l0.1,0l-0.1,0c0,0,0.1-0.1,0.1-0.1l0.1,0l-0.1-0.1c0,0,0,0,0.1-0.1l0,0c0,0,0,0,0,0
			c0,0,0.1-0.1,0.1-0.1l0,0c0,0,0.1-0.1,0.1-0.1c0,0,0.1-0.1,0.1-0.1c0,0,0.1,0,0.1,0c0,0,0,0,0,0.1c0,0.2,0,0.5-0.2,0.6
			c0.5,0.2,0.9,0.6,0.9,1.2s-0.4,1.1-0.9,1.2c0.3,0.5,0.2,1.1-0.2,1.5c-0.2,0.2-0.5,0.4-0.9,0.4c-0.2,0-0.4-0.1-0.6-0.2
			C-114.3,248.3-114.5,248.6-114.8,248.8C-114.8,248.8-114.8,248.8-114.8,248.8z M-113.9,245.1L-113.9,245.1c0.1,0.1,0,0.1,0,0.1
			c0,0,0,0,0,0.1l-0.1,0.2c0,0,0,0.1,0,0.1l-0.1,0.2c0,0,0,0,0,0.1l-0.1,0.3c0,0,0,0,0,0.1l-0.1,0.3c0,0,0,0,0,0.1l-0.1,0.5
			c0,0,0,0,0,0.1l-0.1,0.8c0,0,0,0.1,0,0.1v0.1c0,0.1,0,0.1,0,0.2c0,0.1,0,0.2,0,0.2v0c0,0,0,0,0,0.1c0.2-0.2,0.3-0.4,0.4-0.6
			c0,0,0,0,0-0.1c0,0,0.1,0,0.1,0c0.2,0.1,0.4,0.2,0.6,0.2c0.3,0,0.6-0.1,0.8-0.3c0.4-0.4,0.4-1,0.1-1.4c0,0,0,0,0-0.1s0,0,0.1,0
			c0.5-0.1,0.9-0.5,0.9-1.1c0-0.5-0.4-1-0.9-1.1c0,0,0,0-0.1,0s0-0.1,0-0.1c0.1-0.1,0.2-0.3,0.2-0.5c0,0-0.1,0.1-0.1,0.1l0,0
			c0,0-0.1,0.1-0.1,0.1l0,0l0,0c0,0,0,0-0.1,0.1l0,0c0,0-0.1,0.1-0.1,0.1l-0.1,0.2c0,0,0,0.1-0.1,0.1c0,0,0,0,0,0L-113.9,245.1
			L-113.9,245.1z"/>
		<path class="st1" d="M-109,246.4C-109,246.4-109,246.4-109,246.4c0,0-0.1,0-0.1-0.1c0,0,0,0-0.1-0.1c0,0,0-0.1,0-0.1s0-0.1,0-0.1
			s0-0.1,0-0.2c0,0,0-0.1,0.1-0.1c0,0,0-0.1,0.1-0.1c0,0,0-0.1,0.1-0.1c0,0,0,0,0.1-0.1l0.1-0.1c0,0,0,0,0.1-0.1c0,0,0.1,0,0.1-0.1
			c0.1-0.1,0.2-0.1,0.2-0.1c0,0,0.1,0,0.1,0l0,0c0,0,0,0.1,0,0.1c0,0,0,0.1-0.1,0.2c0,0,0,0.1-0.1,0.2l0,0c0,0,0,0.1,0,0.1
			c0,0,0,0.1,0,0.1c0,0,0,0,0,0s0,0,0,0.1c0,0,0,0.1,0,0.1l0,0.1c0,0,0,0,0,0.1s0,0,0,0.1c0,0,0,0.1,0,0.1
			C-108.9,246.4-108.9,246.4-109,246.4L-109,246.4L-109,246.4z M-108.7,245.4C-108.7,245.4-108.7,245.4-108.7,245.4
			C-108.7,245.5-108.7,245.5-108.7,245.4l-0.1,0.1c0,0,0,0,0,0.1c0,0,0,0.1-0.1,0.1c0,0,0,0.1-0.1,0.1c0,0,0,0.1,0,0.1s0,0.1,0,0.1
			c0,0,0,0.1,0,0.1s0,0.1,0,0.1s0,0,0,0l0,0l0,0c0,0,0,0,0,0c0,0,0,0,0-0.1l0-0.1c0,0,0,0,0-0.1s0,0,0,0s0,0,0,0c0,0,0-0.1,0-0.1
			s0-0.1,0-0.2l0,0C-108.7,245.5-108.7,245.5-108.7,245.4z"/>
		<path class="st1" d="M-111.3,243.9C-111.3,243.9-111.4,243.9-111.3,243.9L-111.3,243.9C-111.4,243.8-111.4,243.8-111.3,243.9
			c-0.1-0.1-0.1-0.1-0.1-0.2c0,0,0-0.1,0-0.1c0,0,0-0.1,0-0.1s0-0.1,0-0.1c0,0,0.1-0.1,0.1-0.1c0,0,0.1,0,0.1-0.1l0.1,0
			c0,0,0,0,0.1,0c0.1,0,0.2,0,0.2-0.1c0.1,0,0.1,0,0.2,0l0,0c0.1,0,0.2,0,0.2,0c0,0,0.1,0,0.1,0.1v0c0,0,0,0.1,0,0.1
			c0,0-0.1,0-0.1,0.1l0,0c0,0-0.1,0-0.1,0.1c0,0-0.1,0.1-0.1,0.1c0,0,0,0,0,0s0,0-0.1,0.1c0,0,0,0-0.1,0c0,0-0.1,0-0.1,0
			c0,0,0,0-0.1,0l0,0C-111.2,243.8-111.2,243.8-111.3,243.9C-111.3,243.9-111.3,243.9-111.3,243.9L-111.3,243.9z M-110.7,243.3
			c0,0-0.1,0-0.1,0c-0.1,0-0.1,0-0.2,0c0,0,0,0-0.1,0l0,0c0,0-0.1,0-0.1,0c0,0,0,0,0,0.1c0,0,0,0,0,0.1c0,0,0,0,0,0.1c0,0,0,0,0,0
			c0,0,0,0,0,0h0c0,0,0,0,0,0h0c0,0,0,0,0.1,0c0,0,0,0,0.1,0c0,0,0,0,0,0c0,0,0,0,0,0c0,0,0-0.1,0.1-0.1c0,0,0.1-0.1,0.2-0.1
			C-110.8,243.3-110.7,243.3-110.7,243.3z"/>
		<path class="st1" d="M-105.3,246.5L-105.3,246.5L-105.3,246.5C-105.3,246.5-105.3,246.4-105.3,246.5c-0.1,0-0.1-0.1-0.1-0.1
			c0,0,0,0,0-0.1c0,0,0,0,0-0.1c0,0,0,0,0-0.1c0,0,0-0.1,0-0.1s0-0.1,0-0.1v0c0,0,0-0.1,0-0.1c0-0.1,0-0.1,0-0.2l0,0
			c0-0.1,0-0.1-0.1-0.2c0-0.1-0.1-0.2-0.1-0.2c0,0,0-0.1,0-0.1l0,0c0,0,0.1,0,0.1,0c0,0,0.1,0,0.2,0.1c0,0,0.1,0,0.1,0.1
			c0,0,0,0,0.1,0.1l0,0.1c0,0,0,0,0.1,0.1c0,0,0.1,0.1,0.1,0.1c0,0,0,0.1,0.1,0.1s0,0.1,0.1,0.1s0,0.1,0,0.2c0,0,0,0.1,0,0.1
			c0,0,0,0.1,0,0.1s0,0-0.1,0.1C-105.2,246.4-105.2,246.4-105.3,246.5C-105.2,246.5-105.3,246.5-105.3,246.5z M-105.6,245.4
			c0,0,0,0.1,0.1,0.1l0,0c0,0.1,0,0.1,0,0.2c0,0,0,0.1,0,0.1c0,0,0,0,0,0s0,0,0,0c0,0,0,0,0,0.1c0,0,0,0.1,0,0.1s0,0,0,0l0,0
			c0,0,0,0,0,0l0,0l0,0c0,0,0,0,0-0.1c0,0,0,0,0-0.1s0-0.1,0-0.1s0-0.1,0-0.1c0,0,0-0.1,0-0.1c0,0,0-0.1-0.1-0.1c0,0,0-0.1-0.1-0.1
			c0,0,0,0-0.1-0.1l0,0C-105.5,245.5-105.5,245.5-105.6,245.4C-105.6,245.4-105.6,245.4-105.6,245.4z"/>
		<path class="st1" d="M-102.9,243.9L-102.9,243.9C-102.9,243.9-102.9,243.9-102.9,243.9c-0.1,0-0.1,0-0.1,0c0,0-0.1,0-0.1,0h0
			c0,0,0,0,0,0c0,0-0.1,0-0.1,0c0,0,0,0-0.1-0.1c0,0,0,0,0,0c0,0-0.1-0.1-0.1-0.1c0,0-0.1-0.1-0.1-0.1c-0.1,0-0.1-0.1-0.1-0.1
			c0,0-0.1-0.1,0-0.1v0c0,0,0-0.1,0.1-0.1c0,0,0.1,0,0.2,0h0c0,0,0.1,0,0.2,0c0.1,0,0.1,0,0.2,0.1c0,0,0,0,0.1,0l0,0
			c0,0,0.1,0,0.1,0.1s0.1,0.1,0.1,0.1c0,0,0,0.1,0,0.1c0,0,0,0.1,0,0.1s0,0.1,0,0.1C-102.8,243.8-102.8,243.9-102.9,243.9
			C-102.8,243.9-102.8,243.9-102.9,243.9L-102.9,243.9C-102.9,243.9-102.9,243.9-102.9,243.9z M-103.5,243.3c0,0,0.1,0,0.1,0.1
			c0,0,0.1,0.1,0.1,0.1c0,0,0,0.1,0.1,0.1s0,0,0,0c0,0,0,0,0,0c0,0,0,0,0,0l0,0c0,0,0,0,0.1,0h0c0,0,0,0,0,0s0,0,0,0c0,0,0,0,0,0
			s0,0,0,0c0,0,0,0,0-0.1c0,0,0,0,0-0.1c0,0,0,0,0-0.1c0,0,0,0-0.1,0l0,0c0,0,0,0-0.1,0c-0.1,0-0.1,0-0.2,0
			C-103.4,243.3-103.5,243.3-103.5,243.3z"/>
		<path class="st1" d="M-107.1,248.3L-107.1,248.3L-107.1,248.3c-0.2,0-0.5-0.1-0.5-0.7c0-0.5,0.5-1.1,0.5-1.2c0,0,0,0,0.1,0l0,0
			c0,0,0,0,0.1,0c0,0,0.5,0.7,0.5,1.2C-106.6,248.2-106.9,248.3-107.1,248.3z M-107.1,246.5c-0.1,0.2-0.4,0.6-0.4,1
			c0,0.4,0.1,0.6,0.4,0.6v0.1v-0.1c0.3,0,0.4-0.2,0.4-0.6C-106.7,247.2-107,246.7-107.1,246.5z"/>
		<path class="st1" d="M-107.1,254.7L-107.1,254.7c-0.3,0-0.5-0.1-0.6-0.3c-0.2-0.2-0.3-0.5-0.3-0.9c0-0.9,0.8-2,0.8-2
			c0,0,0,0,0.1,0l0,0c0,0,0,0,0.1,0c0,0,0.8,1.1,0.8,2c0,0.8-0.4,1.1-0.7,1.2C-106.9,254.7-107,254.7-107.1,254.7z M-107.1,251.6
			c-0.2,0.3-0.8,1.1-0.8,1.8c0,0.4,0.1,0.7,0.2,0.8c0.1,0.1,0.3,0.2,0.5,0.2c0.1,0,0.2,0,0.2,0c0.4-0.1,0.5-0.4,0.5-1
			C-106.3,252.8-106.9,251.9-107.1,251.6z"/>
	</g>
	<path class="st1" d="M-107.1,261.1L-107.1,261.1c-3,0-4.8-1.4-4.8-2l0-3.4c0,0,0,0-0.1,0c-0.8,0-1.5-0.3-2-0.8
		c-0.5-0.5-0.8-1.3-0.8-2c0-0.6,0.2-1.1,0.5-1.6c-0.5-0.8-0.7-1.7-0.8-2.6c0-0.1,0-0.2,0-0.2c0-0.1,0-0.2,0-0.3c0-0.1,0-0.1,0-0.2
		V248v-0.1c0,0,0-0.1,0-0.1l0-0.1v-0.1l0-0.1l0-0.1l0-0.1l0-0.1l0-0.1l0-0.1l0-0.1l0-0.1l0-0.1l0-0.1c0-0.1,0-0.1,0-0.1l0.1-0.4
		l0-0.1l0-0.1l0.2-0.4l0.3,0.1l-0.3-0.1l0.2-0.4l0-0.1l0.2-0.3l0-0.1l0.2-0.3l0.1-0.1c0,0,0,0,0-0.1l0-0.1l0.1-0.2l0.1-0.1l0.1-0.1
		l0,0l0.3-0.4l0,0l0.4-0.4c0,0,0,0,0,0c0.5-0.4,1.1-0.8,1.7-1.1c0,0,0,0,0,0l0.2-0.1l0.1,0l0.1-0.1l0.1,0l0.1,0l0.1,0
		c0.2-0.1,0.3-0.1,0.5-0.2l0.1,0l0.1,0l0.1,0l0.2,0c0.2,0,0.3-0.1,0.5-0.1l0.1,0l0.2,0l0.1,0l0.1,0l0.1,0.3l0-0.3c0.1,0,0.2,0,0.2,0
		c0,0,0,0,0,0l0.2,0c0,0,0.1,0,0.1,0l0.4,0l0.1,0.3v-0.3h0.2l0.7,0h0.1l0.5,0l0.1,0l0.2,0l0,0.3l0.1-0.3l0.1,0l0.1,0l0.7,0.2l0.1,0
		l0.2,0c0,0,0.1,0,0.1,0c0.1,0,0.3,0.1,0.4,0.1l0.2,0.1c0,0,0.1,0,0.1,0c0,0,0.1,0,0.1,0.1l0.3,0.1c0.6,0.3,1.2,0.7,1.7,1.1
		c0,0,0.1,0.1,0.1,0.1c0,0,0,0,0,0l0.3,0.3c0,0,0,0,0,0.1l0.3,0.3l0.1,0.1l0,0.1l0,0.1l0.2,0.3l-0.2,0.3l0.3-0.2l0,0.1l-0.2,0.3
		l0.3-0.2l0,0.1l0.1,0.1l0,0.1l0,0.1l0,0.1l0.2,0.4l0,0.1l0,0.1c0,0,0,0.1,0,0.1l0,0.1l-0.3,0.2l0.3-0.1l-0.3,0.2l0.3-0.1l0,0.1
		l-0.3,0.2l0.3-0.1l0,0.1l-0.3,0.2l0.3-0.1l0,0.2l0,0.1l-0.3,0.1l0.3-0.1c0,0,0,0.1,0,0.1l-0.3,0.1l0.3-0.1l-0.3,0.2l0.3-0.1
		l0.1,0.4l-0.3,0.1l0.3,0l0,0.2v0.1v0.1v0.1v0.1v0.2c0,0.1,0,0.2,0,0.3c0,0.1,0,0.2,0,0.3c-0.1,0.9-0.3,1.8-0.8,2.6
		c0.3,0.5,0.5,1,0.5,1.6c0,1.6-1.3,2.9-2.9,2.9c0,0-0.1,0-0.1,0l0,3.4C-102.4,259.8-104.2,261.1-107.1,261.1z M-111.6,255.1
		c0.1,0,0.2,0,0.2,0.1c0.1,0.1,0.1,0.2,0.1,0.3l0,3.8c0.1,0.2,1.5,1.3,4.1,1.3l0,0.3v-0.3c2.6,0,3.9-1.1,4.1-1.3v-3.7
		c0-0.1,0-0.2,0.1-0.3c0.1-0.1,0.2-0.1,0.3-0.1c0.1,0,0.2,0,0.3,0c1.2,0,2.2-1,2.2-2.2c0-0.5-0.2-0.9-0.4-1.3
		c-0.1-0.1-0.1-0.3,0-0.4c0.5-0.8,0.7-1.6,0.8-2.5c0-0.1,0-0.1,0-0.2c0-0.1,0-0.2,0-0.3l0-0.4l0.3-0.1l-0.3,0l0-0.1l0-0.1l0.3-0.1
		l-0.3,0l0-0.1l0-0.1l0.3-0.2l-0.3,0l0-0.1l0-0.1l0.3-0.1l-0.3,0l0.3-0.1l-0.3,0l0.3-0.1l-0.3,0l-0.1-0.2l0.3-0.2l-0.3,0.1l0-0.1
		c0,0,0-0.1,0-0.1l0-0.1l0.3-0.2l-0.3,0.1l0.3-0.2l-0.3,0.1l0-0.1l0.3-0.2l-0.3,0.1l0-0.1l0.3-0.2l-0.3,0.1l0-0.1l0-0.1l-0.1-0.2
		l0.3-0.2l-0.3,0.2l-0.1-0.2l0.2-0.3l-0.3,0.2l-0.1-0.1l-0.1-0.1l-0.1-0.1l0-0.1l0-0.1l-0.1-0.1l0.2-0.3l-0.3,0.2l0-0.1l0,0
		l-0.3-0.3l0.2-0.3l-0.2,0.2l-0.5-0.5c-0.5-0.4-1-0.8-1.6-1c-0.1,0-0.1-0.1-0.2-0.1l-0.4-0.2c-0.2-0.1-0.3-0.1-0.4-0.2l-0.1,0
		l-0.1,0l0-0.3l-0.1,0.3l-0.1,0l-0.1,0l-0.4-0.1l0-0.3l-0.1,0.3l-0.1,0l-0.1,0l-0.1,0l0-0.3l0,0.3l-0.4,0l0-0.3l0,0.3l-0.2,0h-0.1
		h-0.1l-0.1-0.3l0,0.3h-0.2h-0.2h-0.1l-0.6,0c0,0,0,0,0,0c-0.1,0-0.1,0-0.2,0c0,0-0.1,0-0.1,0l-0.1,0l-0.1-0.3l0.1,0.3l-0.2,0
		l-0.1,0c-0.1,0-0.3,0.1-0.4,0.1l-0.1,0l-0.4,0.1c-0.1,0-0.3,0.1-0.4,0.1l-0.6,0.3c0,0,0,0,0,0c-0.6,0.3-1.1,0.6-1.6,1l0,0l-0.8,0.8
		l0,0l-0.1,0.1l-0.3-0.1l0.3,0.2l-0.1,0.2l-0.3-0.1l0.3,0.2l-0.1,0.1c0,0,0,0,0,0.1l-0.1,0.1l-0.1,0.1l0,0.1h0l-0.3-0.1l0.3,0.2
		l0,0.1l0,0.1l0,0.1l0,0.1l0,0.1l0,0.1l0,0.1l0,0.1l0,0.1l-0.3,0l0.3,0.1l0,0.1l-0.3,0l0.3,0.1l0,0.1l0,0.1l0,0.1l0,0.1l0,0.1
		c0,0,0,0.1,0,0.1l0,0.1h-0.3l0.3,0.1l0,0.1h-0.3l0.3,0.1l-0.3,0l0.3,0.1h-0.3l0.3,0.1l0,0.1l-0.3,0l0.3,0l-0.3,0l0.3,0l0,0.1
		l-0.3,0.1l0.3,0l-0.3,0l0.3,0l0,0.2v0.1c0,0.1,0,0.2,0,0.2c0,0.1,0,0.2,0,0.2c0,0.1,0,0.2,0,0.2c0.1,0.9,0.3,1.7,0.8,2.5
		c0.1,0.1,0.1,0.3,0,0.4c-0.3,0.4-0.5,0.8-0.5,1.3c0,0.6,0.2,1.1,0.6,1.6c0.4,0.4,1,0.6,1.6,0.6l0,0
		C-111.8,255.1-111.7,255.1-111.6,255.1C-111.6,255.1-111.6,255.1-111.6,255.1z"/>
</g>
</svg>
